module gitlab.com/nerd-vision/go-grpc-api/v2

go 1.17

require (
	google.golang.org/grpc v1.41.0
	google.golang.org/protobuf v1.27.1
)

require (
	github.com/golang/protobuf v1.5.2 // indirect
	golang.org/x/net v0.0.0-20211004164453-cedda3a722dd // indirect
	golang.org/x/sys v0.0.0-20211004093028-2c5d950f24ef // indirect
	golang.org/x/text v0.3.7 // indirect
	google.golang.org/genproto v0.0.0-20211001223012-bfb93cce50d9 // indirect
)
